{"playlists": {"href": "https://api.spotify.com/v1/search?query=lofi&type=playlist&offset=0&limit=5", "items": [{"collaborative": 0, "description": "a bot created this", "external_urls": {"spotify": "https://open.spotify.com/playlist/1VcPVOXrGPsbDXgaeNyX6q"}, "href": "https://api.spotify.com/v1/playlists/1VcPVOXrGPsbDXgaeNyX6q", "id": "1VcPVOXrGPsbDXgaeNyX6q", "images": [{"height": 640, "url": "https://mosaic.scdn.co/640/ab67616d0000b27311c6f9b227adbdc66adbb01aab67616d0000b2732ba95132d2423239978a0796ab67616d0000b2735c2fac6828eb63a9c577100eab67616d0000b273e8fdaa8d5dbc9abb5c3da54b", "width": 640}, {"height": 300, "url": "https://mosaic.scdn.co/300/ab67616d0000b27311c6f9b227adbdc66adbb01aab67616d0000b2732ba95132d2423239978a0796ab67616d0000b2735c2fac6828eb63a9c577100eab67616d0000b273e8fdaa8d5dbc9abb5c3da54b", "width": 300}, {"height": 60, "url": "https://mosaic.scdn.co/60/ab67616d0000b27311c6f9b227adbdc66adbb01aab67616d0000b2732ba95132d2423239978a0796ab67616d0000b2735c2fac6828eb63a9c577100eab67616d0000b273e8fdaa8d5dbc9abb5c3da54b", "width": 60}], "name": "lofi for user gg", "owner": {"display_name": "Gaelgil", "external_urls": {"spotify": "https://open.spotify.com/user/imaddysiuh4idry3ayptfge22"}, "href": "https://api.spotify.com/v1/users/imaddysiuh4idry3ayptfge22", "id": "imaddysiuh4idry3ayptfge22", "type": "user", "uri": "spotify:user:imaddysiuh4idry3ayptfge22"}, "primary_color": 0, "public": 0, "snapshot_id": "NywzZWE1ZTMzNTAzMTBjNmVmNmExM2VhZjljMjhmOTJmZjMxNGQ0YWFm", "tracks": {"href": "https://api.spotify.com/v1/playlists/1VcPVOXrGPsbDXgaeNyX6q/tracks", "total": 500}, "type": "playlist", "uri": "spotify:playlist:1VcPVOXrGPsbDXgaeNyX6q"}, {"collaborative": 0, "description": "A daily selection of chill beats - perfect to help you relax & study 📚", "external_urls": {"spotify": "https://open.spotify.com/playlist/0vvXsWCC9xrXsKd4FyS8kM"}, "href": "https://api.spotify.com/v1/playlists/0vvXsWCC9xrXsKd4FyS8kM", "id": "0vvXsWCC9xrXsKd4FyS8kM", "images": [{"height": 0, "url": "https://i.scdn.co/image/ab67706c0000bebb163aeea48afe86ed0c55bfcd", "width": 0}], "name": "lofi hip hop music - beats to relax/study to", "owner": {"display_name": "Lofi Girl", "external_urls": {"spotify": "https://open.spotify.com/user/chilledcow"}, "href": "https://api.spotify.com/v1/users/chilledcow", "id": "chilledcow", "type": "user", "uri": "spotify:user:chilledcow"}, "primary_color": 0, "public": 0, "snapshot_id": "MjExNCw3YjY0ZGE2ZDQyZGNmYjU5OTg5NmRmM2E4NzMzNDY0ZmQ3MGM3Yjg5", "tracks": {"href": "https://api.spotify.com/v1/playlists/0vvXsWCC9xrXsKd4FyS8kM/tracks", "total": 300}, "type": "playlist", "uri": "spotify:playlist:0vvXsWCC9xrXsKd4FyS8kM"}, {"collaborative": 0, "description": "peaceful & quiet lo-fi beats for a perfect sleepy night 💤 weekly selection, new songs every monday 💤 You can <a href='https://ko-fi.com/colours'>Support Me</a> and help me continue doing this 💙 cover illustration by: @paulabot", "external_urls": {"spotify": "https://open.spotify.com/playlist/35xI4hSJ8MdO1xkXwsd56a"}, "href": "https://api.spotify.com/v1/playlists/35xI4hSJ8MdO1xkXwsd56a", "id": "35xI4hSJ8MdO1xkXwsd56a", "images": [{"height": 0, "url": "https://i.scdn.co/image/ab67706c0000bebb2da6cc0f4ab5c7646e8d6845", "width": 0}], "name": "lofi sleep, lofi rain 💤", "owner": {"display_name": "colours in the dark", "external_urls": {"spotify": "https://open.spotify.com/user/danimau07"}, "href": "https://api.spotify.com/v1/users/danimau07", "id": "danimau07", "type": "user", "uri": "spotify:user:danimau07"}, "primary_color": 0, "public": 0, "snapshot_id": "MTIxNiwwMDE0MzkwMjk4Njc0OTNmZjM4ZjhiNzg3NzBiOThhZDE0NmViNTkw", "tracks": {"href": "https://api.spotify.com/v1/playlists/35xI4hSJ8MdO1xkXwsd56a/tracks", "total": 120}, "type": "playlist", "uri": "spotify:playlist:35xI4hSJ8MdO1xkXwsd56a"}, {"collaborative": 0, "description": "The best Lofi Hip Hop & Chill Music in 2021 🍉 (Updated Almost Daily) Perfect to relax, sleep, study, chill, vibe, read, groove to 🍉 Including: Mellow chill beats, chillhop, smooth lofi, bedroom pop, lofi remixes, lo-fi beats, instrumental beats & relaxing lo-fi jazz. ", "external_urls": {"spotify": "https://open.spotify.com/playlist/3LFIBdP7eZXJKqf3guepZ1"}, "href": "https://api.spotify.com/v1/playlists/3LFIBdP7eZXJKqf3guepZ1", "id": "3LFIBdP7eZXJKqf3guepZ1", "images": [{"height": 0, "url": "https://i.scdn.co/image/ab67706c0000bebb2ea66da5dfc22e365f71f65f", "width": 0}], "name": "Lofi Fruits Music 🍉 lofi hip hop music to chill, relax, study, sleep", "owner": {"display_name": "Strange Fruits", "external_urls": {"spotify": "https://open.spotify.com/user/a902190"}, "href": "https://api.spotify.com/v1/users/a902190", "id": "a902190", "type": "user", "uri": "spotify:user:a902190"}, "primary_color": 0, "public": 0, "snapshot_id": "NDQ3MSw1ODc5ZTQ0MTlhOWY5ZmMxMGEzNzU5N2Q1NzM5MmFhN2IzYWZlNDNh", "tracks": {"href": "https://api.spotify.com/v1/playlists/3LFIBdP7eZXJKqf3guepZ1/tracks", "total": 299}, "type": "playlist", "uri": "spotify:playlist:3LFIBdP7eZXJKqf3guepZ1"}, {"collaborative": 0, "description": "A daily selection of the smoothest lofi hip hop beats, perfect to help you chill or fall asleep 💤", "external_urls": {"spotify": "https://open.spotify.com/playlist/5FmmxErJczcrEwIFGIviYo"}, "href": "https://api.spotify.com/v1/playlists/5FmmxErJczcrEwIFGIviYo", "id": "5FmmxErJczcrEwIFGIviYo", "images": [{"height": 0, "url": "https://i.scdn.co/image/ab67706c0000bebb82ebb6b692438d804e7b75b2", "width": 0}], "name": "lofi hip hop music - beats to sleep/chill to", "owner": {"display_name": "Lofi Girl", "external_urls": {"spotify": "https://open.spotify.com/user/chilledcow"}, "href": "https://api.spotify.com/v1/users/chilledcow", "id": "chilledcow", "type": "user", "uri": "spotify:user:chilledcow"}, "primary_color": 0, "public": 0, "snapshot_id": "MTA0Niw0MzA5YTk4NTg0MGYyZjE4ZGU1ZGRiNDExNmYzYThkOTRlMDM3OTY2", "tracks": {"href": "https://api.spotify.com/v1/playlists/5FmmxErJczcrEwIFGIviYo/tracks", "total": 150}, "type": "playlist", "uri": "spotify:playlist:5FmmxErJczcrEwIFGIviYo"}], "limit": 5, "next": "https://api.spotify.com/v1/search?query=lofi&type=playlist&offset=5&limit=5", "offset": 0, "previous": 0, "total": 162423}}